CodeEditingAction 1638879854562 Translator.java CHANGE Translator.java CLASS
EditAction 1638879854566 Translator.java 2608 8 15 0
EditAction 1638879854710 Translator.java 2608 8 15 0
TestFailureAction 1638879858176 pltTesto.java FAIL
CodeEditingAction 1638879905762 Translator.java CHANGE Translator.java CLASS
EditAction 1638879905767 Translator.java 2617 8 16 0
EditAction 1638879905907 Translator.java 2617 8 16 0
TestFailureAction 1638879906810 pltTesto.java FAIL
CodeEditingAction 1638879979085 Translator.java CHANGE Translator.java CLASS
EditAction 1638879979090 Translator.java 2617 8 16 0
EditAction 1638879979245 Translator.java 2617 8 16 0
TestFailureAction 1638879980076 pltTesto.java FAIL
CodeEditingAction 1638880046495 Translator.java CHANGE Translator.java CLASS
EditAction 1638880046502 Translator.java 2583 8 16 0
EditAction 1638880046623 Translator.java 2583 8 16 0
TestFailureAction 1638880047378 pltTesto.java FAIL
CodeEditingAction 1638880068312 Translator.java CHANGE Translator.java CLASS
EditAction 1638880068317 Translator.java 2578 8 16 0
EditAction 1638880068428 Translator.java 2578 8 16 0
TestFailureAction 1638880069444 pltTesto.java FAIL
CodeEditingAction 1638880089425 Translator.java CHANGE Translator.java CLASS
EditAction 1638880089429 Translator.java 2573 8 16 0
EditAction 1638880089573 Translator.java 2573 8 16 0
TestFailureAction 1638880090510 pltTesto.java FAIL
CodeEditingAction 1638880111794 Translator.java CHANGE Translator.java CLASS
EditAction 1638880111795 Translator.java 2563 8 16 0
EditAction 1638880111952 Translator.java 2563 8 16 0
TestFailureAction 1638880112789 pltTesto.java FAIL
CodeEditingAction 1638880174945 Translator.java CHANGE Translator.java CLASS
EditAction 1638880174951 Translator.java 2563 8 16 0
EditAction 1638880175036 Translator.java 2563 8 16 0
TestFailureAction 1638880175972 pltTesto.java FAIL
CodeEditingAction 1638880241254 Translator.java CHANGE Translator.java CLASS
EditAction 1638880241258 Translator.java 2547 8 16 0
EditAction 1638880241375 Translator.java 2547 8 16 0
TestFailureAction 1638880242172 pltTesto.java FAIL
CodeEditingAction 1638880270061 Translator.java ADD String phrase3 FIELD
CodeEditingAction 1638880293012 Translator.java CHANGE Translator.java CLASS
EditAction 1638880293154 Translator.java 2563 8 15 0
TestFailureAction 1638880294137 pltTesto.java FAIL
CodeEditingAction 1638880344809 Translator.java CHANGE Translator.java CLASS
EditAction 1638880344813 Translator.java 2565 8 15 0
EditAction 1638880344928 Translator.java 2565 8 15 0
TestFailureAction 1638880345790 pltTesto.java FAIL
